{
    "content": [
        {
            "path": "SimObjects/Airplanes/FlyByWire_A320_NEO-HUAIR/aircraft.cfg",
            "size": 887,
            "date": 1625846850049766900
        },
        {
            "path": "SimObjects/Airplanes/FlyByWire_A320_NEO-HUAIR/model.HUAIR/model.cfg",
            "size": 300,
            "date": 1625846850050767500
        },
        {
            "path": "SimObjects/Airplanes/FlyByWire_A320_NEO-HUAIR/TEXTURE.HUAIR/A320NEO_AIRFRAME_ENGINES_ALBD.PNG.DDS",
            "size": 5592580,
            "date": 1625846863815771400
        },
        {
            "path": "SimObjects/Airplanes/FlyByWire_A320_NEO-HUAIR/TEXTURE.HUAIR/A320NEO_AIRFRAME_ENGINES_ALBD.PNG.DDS.json",
            "size": 120,
            "date": 1625846863819770900
        },
        {
            "path": "SimObjects/Airplanes/FlyByWire_A320_NEO-HUAIR/TEXTURE.HUAIR/A320NEO_AIRFRAME_FUSELAGE_ALBD.PNG.DDS",
            "size": 5592580,
            "date": 1625846863820771800
        },
        {
            "path": "SimObjects/Airplanes/FlyByWire_A320_NEO-HUAIR/TEXTURE.HUAIR/A320NEO_AIRFRAME_FUSELAGE_ALBD.PNG.DDS.json",
            "size": 120,
            "date": 1625846863825801400
        },
        {
            "path": "SimObjects/Airplanes/FlyByWire_A320_NEO-HUAIR/TEXTURE.HUAIR/A320NEO_AIRFRAME_LIVERY_ALBD.PNG.DDS",
            "size": 5592580,
            "date": 1625846863826771000
        },
        {
            "path": "SimObjects/Airplanes/FlyByWire_A320_NEO-HUAIR/TEXTURE.HUAIR/A320NEO_AIRFRAME_LIVERY_ALBD.PNG.DDS.json",
            "size": 120,
            "date": 1625846863829772100
        },
        {
            "path": "SimObjects/Airplanes/FlyByWire_A320_NEO-HUAIR/TEXTURE.HUAIR/A320NEO_AIRFRAME_LIVERY_TEXTS_ALBD.PNG.dds",
            "size": 516,
            "date": 1625846863830772000
        },
        {
            "path": "SimObjects/Airplanes/FlyByWire_A320_NEO-HUAIR/TEXTURE.HUAIR/A320NEO_AIRFRAME_LIVERY_TEXTS_ALBD.PNG.DDS.json",
            "size": 120,
            "date": 1625846863832771600
        },
        {
            "path": "SimObjects/Airplanes/FlyByWire_A320_NEO-HUAIR/TEXTURE.HUAIR/A320NEO_AIRFRAME_WINGS_ALBD.PNG.DDS",
            "size": 5592580,
            "date": 1625846863833775700
        },
        {
            "path": "SimObjects/Airplanes/FlyByWire_A320_NEO-HUAIR/TEXTURE.HUAIR/A320NEO_AIRFRAME_WINGS_ALBD.PNG.DDS.json",
            "size": 120,
            "date": 1625846863837773800
        },
        {
            "path": "SimObjects/Airplanes/FlyByWire_A320_NEO-HUAIR/TEXTURE.HUAIR/texture.cfg",
            "size": 246,
            "date": 1625846850051768300
        },
        {
            "path": "SimObjects/Airplanes/FlyByWire_A320_NEO-HUAIR/TEXTURE.HUAIR/thumbnail.jpg",
            "size": 31266,
            "date": 1625846850046767100
        }
    ]
}